UART/uart_tx_tb.vcd
$date
	Fri Jul 25 15:26:37 2025
$end
$version
	Icarus Verilog
$end
$timescale
	1ps
$end
$scope module uart_tx_tb $end
$var wire 1 ! tx_pin $end
$var wire 1 " tx_data_ready $end
$var parameter 32 # BAUD_RATE $end
$var parameter 32 $ CLK_FRE $end
$var parameter 32 % CLK_PERIOD $end
$var reg 1 & clk $end
$var reg 1 ' rst_n $end
$var reg 8 ( tx_data [7:0] $end
$var reg 1 ) tx_data_valid $end
$scope module UUT $end
$var wire 1 & clk $end
$var wire 1 ' rst_n $end
$var wire 8 * tx_data [7:0] $end
$var wire 1 ) tx_data_valid $end
$var wire 1 ! tx_pin $end
$var parameter 32 + BAUD_RATE $end
$var parameter 32 , CLK_FRE $end
$var parameter 64 - CYCLE $end
$var parameter 32 . S_IDLE $end
$var parameter 32 / S_SEND_BYTE $end
$var parameter 32 0 S_START $end
$var parameter 32 1 S_STOP $end
$var reg 3 2 bit_cnt [2:0] $end
$var reg 16 3 cycle_cnt [15:0] $end
$var reg 3 4 next_state [2:0] $end
$var reg 3 5 state [2:0] $end
$var reg 8 6 tx_data_latch [7:0] $end
$var reg 1 " tx_data_ready $end
$var reg 1 7 tx_reg $end
$upscope $end
$upscope $end
$enddefinitions $end
$comment Show the parameter values. $end
$dumpall
b100 1
b10 0
b11 /
b1 .
b110110010 -
b110010 ,
b11100001000000000 +
b10100 %
b110010 $
b11100001000000000 #
$end
#0
$dumpvars
17
b0 6
b1 5
b1 4
b0 3
b0 2
b0 *
0)
b0 (
0'
0&
0"
1!
$end
#10000
1&
#20000
0&
#30000
1&
#40000
0&
#50000
1&
#60000
0&
#70000
1&
#80000
0&
#90000
1&
#100000
0&
1'
#110000
b10 4
1)
b10100101 (
b10100101 *
1"
b1 3
1&
#120000
0&
#130000
b10 4
b0 3
b10 5
0)
1&
#140000
0&
#150000
b1 3
0!
07
1&
#160000
0&
#170000
b10 3
1&
#180000
0&
#190000
b11 3
1&
#200000
0&
#210000
b100 3
1&
#220000
0&
#230000
b101 3
1&
#240000
0&
#250000
b110 3
1&
#260000
0&
#270000
b111 3
1&
#280000
0&
#290000
b1000 3
1&
#300000
0&
#310000
b1001 3
1&
#320000
0&
#330000
b1010 3
1&
#340000
0&
#350000
b1011 3
1&
#360000
0&
#370000
b1100 3
1&
#380000
0&
#390000
b1101 3
1&
#400000
0&
#410000
b1110 3
1&
#420000
0&
#430000
b1111 3
1&
#440000
0&
#450000
b10000 3
1&
#460000
0&
#470000
b10001 3
1&
#480000
0&
#490000
b10010 3
1&
#500000
0&
#510000
b10011 3
1&
#520000
0&
#530000
b10100 3
1&
#540000
0&
#550000
b10101 3
1&
#560000
0&
#570000
b10110 3
1&
#580000
0&
#590000
b10111 3
1&
#600000
0&
#610000
b11000 3
1&
#620000
0&
#630000
b11001 3
1&
#640000
0&
#650000
b11010 3
1&
#660000
0&
#670000
b11011 3
1&
#680000
0&
#690000
b11100 3
1&
#700000
0&
#710000
b11101 3
1&
#720000
0&
#730000
b11110 3
1&
#740000
0&
#750000
b11111 3
1&
#760000
0&
#770000
b100000 3
1&
#780000
0&
#790000
b100001 3
1&
#800000
0&
#810000
b100010 3
1&
#820000
0&
#830000
b100011 3
1&
#840000
0&
#850000
b100100 3
1&
#860000
0&
#870000
b100101 3
1&
#880000
0&
#890000
b100110 3
1&
#900000
0&
#910000
b100111 3
1&
#920000
0&
#930000
b101000 3
1&
#940000
0&
#950000
b101001 3
1&
#960000
0&
#970000
b101010 3
1&
#980000
0&
#990000
b101011 3
1&
#1000000
0&
#1010000
b101100 3
1&
#1020000
0&
#1030000
b101101 3
1&
#1040000
0&
#1050000
b101110 3
1&
#1060000
0&
#1070000
b101111 3
1&
#1080000
0&
#1090000
b110000 3
1&
#1100000
0&
#1110000
b110001 3
1&
#1120000
0&
#1130000
b110010 3
1&
1)
b11000011 (
b11000011 *
#1140000
0&
#1150000
b110011 3
0)
1&
#1160000
0&
#1170000
b110100 3
1&
#1180000
0&
#1190000
b110101 3
1&
#1200000
0&
#1210000
b110110 3
1&
#1220000
0&
#1230000
b110111 3
1&
#1240000
0&
#1250000
b111000 3
1&
#1260000
0&
#1270000
b111001 3
1&
#1280000
0&
#1290000
b111010 3
1&
#1300000
0&
#1310000
b111011 3
1&
#1320000
0&
#1330000
b111100 3
1&
#1340000
0&
#1350000
b111101 3
1&
#1360000
0&
#1370000
b111110 3
1&
#1380000
0&
#1390000
b111111 3
1&
#1400000
0&
#1410000
b1000000 3
1&
#1420000
0&
#1430000
b1000001 3
1&
#1440000
0&
#1450000
b1000010 3
1&
#1460000
0&
#1470000
b1000011 3
1&
#1480000
0&
#1490000
b1000100 3
1&
#1500000
0&
#1510000
b1000101 3
1&
#1520000
0&
#1530000
b1000110 3
1&
#1540000
0&
#1550000
b1000111 3
1&
#1560000
0&
#1570000
b1001000 3
1&
#1580000
0&
#1590000
b1001001 3
1&
#1600000
0&
#1610000
b1001010 3
1&
#1620000
0&
#1630000
b1001011 3
1&
#1640000
0&
#1650000
b1001100 3
1&
#1660000
0&
#1670000
b1001101 3
1&
#1680000
0&
#1690000
b1001110 3
1&
#1700000
0&
#1710000
b1001111 3
1&
#1720000
0&
#1730000
b1010000 3
1&
#1740000
0&
#1750000
b1010001 3
1&
#1760000
0&
#1770000
b1010010 3
1&
#1780000
0&
#1790000
b1010011 3
1&
#1800000
0&
#1810000
b1010100 3
1&
#1820000
0&
#1830000
b1010101 3
1&
#1840000
0&
#1850000
b1010110 3
1&
#1860000
0&
#1870000
b1010111 3
1&
#1880000
0&
#1890000
b1011000 3
1&
#1900000
0&
#1910000
b1011001 3
1&
#1920000
0&
#1930000
b1011010 3
1&
#1940000
0&
#1950000
b1011011 3
1&
#1960000
0&
#1970000
b1011100 3
1&
#1980000
0&
#1990000
b1011101 3
1&
#2000000
0&
#2010000
b1011110 3
1&
#2020000
0&
#2030000
b1011111 3
1&
#2040000
0&
#2050000
b1100000 3
1&
#2060000
0&
#2070000
b1100001 3
1&
#2080000
0&
#2090000
b1100010 3
1&
#2100000
0&
#2110000
b1100011 3
1&
#2120000
0&
#2130000
b1100100 3
1&
#2140000
0&
#2150000
b1100101 3
1&
#2160000
0&
#2170000
b1100110 3
1&
#2180000
0&
#2190000
b1100111 3
1&
#2200000
0&
#2210000
b1101000 3
1&
#2220000
0&
#2230000
b1101001 3
1&
#2240000
0&
#2250000
b1101010 3
1&
#2260000
0&
#2270000
b1101011 3
1&
#2280000
0&
#2290000
b1101100 3
1&
#2300000
0&
#2310000
b1101101 3
1&
#2320000
0&
#2330000
b1101110 3
1&
#2340000
0&
#2350000
b1101111 3
1&
#2360000
0&
#2370000
b1110000 3
1&
#2380000
0&
#2390000
b1110001 3
1&
#2400000
0&
#2410000
b1110010 3
1&
#2420000
0&
#2430000
b1110011 3
1&
#2440000
0&
#2450000
b1110100 3
1&
#2460000
0&
#2470000
b1110101 3
1&
#2480000
0&
#2490000
b1110110 3
1&
#2500000
0&
#2510000
b1110111 3
1&
#2520000
0&
#2530000
b1111000 3
1&
#2540000
0&
#2550000
b1111001 3
1&
#2560000
0&
#2570000
b1111010 3
1&
#2580000
0&
#2590000
b1111011 3
1&
#2600000
0&
#2610000
b1111100 3
1&
#2620000
0&
#2630000
b1111101 3
1&
#2640000
0&
#2650000
b1111110 3
1&
#2660000
0&
#2670000
b1111111 3
1&
#2680000
0&
#2690000
b10000000 3
1&
#2700000
0&
#2710000
b10000001 3
1&
#2720000
0&
#2730000
b10000010 3
1&
#2740000
0&
#2750000
b10000011 3
1&
#2760000
0&
#2770000
b10000100 3
1&
#2780000
0&
#2790000
b10000101 3
1&
#2800000
0&
#2810000
b10000110 3
1&
#2820000
0&
#2830000
b10000111 3
1&
#2840000
0&
#2850000
b10001000 3
1&
#2860000
0&
#2870000
b10001001 3
1&
#2880000
0&
#2890000
b10001010 3
1&
#2900000
0&
#2910000
b10001011 3
1&
#2920000
0&
#2930000
b10001100 3
1&
#2940000
0&
#2950000
b10001101 3
1&
#2960000
0&
#2970000
b10001110 3
1&
#2980000
0&
#2990000
b10001111 3
1&
#3000000
0&
#3010000
b10010000 3
1&
#3020000
0&
#3030000
b10010001 3
1&
#3040000
0&
#3050000
b10010010 3
1&
#3060000
0&
#3070000
b10010011 3
1&
#3080000
0&
#3090000
b10010100 3
1&
#3100000
0&
#3110000
b10010101 3
1&
#3120000
0&
#3130000
b10010110 3
1&
#3140000
0&
#3150000
b10010111 3
1&
